\relax 
\providecommand\hyper@newdestlabel[2]{}
\providecommand\babel@aux[2]{}
\@nameuse{bbl@beforestart}
\providecommand\HyperFirstAtBeginDocument{\AtBeginDocument}
\HyperFirstAtBeginDocument{\ifx\hyper@anchor\@undefined
\global\let\oldnewlabel\newlabel
\gdef\newlabel#1#2{\newlabelxx{#1}#2}
\gdef\newlabelxx#1#2#3#4#5#6{\oldnewlabel{#1}{{#2}{#3}}}
\AtEndDocument{\ifx\hyper@anchor\@undefined
\let\newlabel\oldnewlabel
\fi}
\fi}
\global\let\hyper@last\relax 
\gdef\HyperFirstAtBeginDocument#1{#1}
\providecommand\HyField@AuxAddToFields[1]{}
\providecommand\HyField@AuxAddToCoFields[2]{}
\babel@aux{english}{}
\newlabel{index::doc}{{}{1}{}{section*.2}{}}
\@writefile{toc}{\contentsline {chapter}{\numberline {1}How to use Lingra software}{1}{chapter.1}\protected@file@percent }
\@writefile{lof}{\addvspace {10\p@ }}
\@writefile{lot}{\addvspace {10\p@ }}
\newlabel{readme:how-to-use-lingra-software}{{1}{1}{How to use Lingra software}{chapter.1}{}}
\newlabel{readme::doc}{{1}{1}{How to use Lingra software}{chapter.1}{}}
\@writefile{toc}{\contentsline {chapter}{\numberline {2}How to use Lingra as a function}{3}{chapter.2}\protected@file@percent }
\@writefile{lof}{\addvspace {10\p@ }}
\@writefile{lot}{\addvspace {10\p@ }}
\newlabel{readme:how-to-use-lingra-as-a-function}{{2}{3}{How to use Lingra as a function}{chapter.2}{}}
\@writefile{toc}{\contentsline {chapter}{\numberline {3}How to contribute}{5}{chapter.3}\protected@file@percent }
\@writefile{lof}{\addvspace {10\p@ }}
\@writefile{lot}{\addvspace {10\p@ }}
\newlabel{readme:how-to-contribute}{{3}{5}{How to contribute}{chapter.3}{}}
\@writefile{toc}{\contentsline {chapter}{\numberline {4}Other related pasture models}{7}{chapter.4}\protected@file@percent }
\@writefile{lof}{\addvspace {10\p@ }}
\@writefile{lot}{\addvspace {10\p@ }}
\newlabel{readme:other-related-pasture-models}{{4}{7}{Other related pasture models}{chapter.4}{}}
\@writefile{toc}{\contentsline {chapter}{\numberline {5}Lingrs}{9}{chapter.5}\protected@file@percent }
\@writefile{lof}{\addvspace {10\p@ }}
\@writefile{lot}{\addvspace {10\p@ }}
\newlabel{modules:lingrs}{{5}{9}{Lingrs}{chapter.5}{}}
\newlabel{modules::doc}{{5}{9}{Lingrs}{chapter.5}{}}
\@writefile{toc}{\contentsline {section}{\numberline {5.1}lib\_read\_input\_files module}{9}{section.5.1}\protected@file@percent }
\newlabel{lib_read_input_files:module-lib_read_input_files}{{5.1}{9}{lib\_read\_input\_files module}{section.5.1}{}}
\newlabel{lib_read_input_files:lib-read-input-files-module}{{5.1}{9}{lib\_read\_input\_files module}{section.5.1}{}}
\newlabel{lib_read_input_files::doc}{{5.1}{9}{lib\_read\_input\_files module}{section.5.1}{}}
\newlabel{lib_read_input_files:lib_read_input_files.lib_read_params_file}{{5.1}{9}{lib\_read\_input\_files module}{section*.3}{}}
\newlabel{lib_read_input_files:lib_read_input_files.lib_read_weather_file}{{5.1}{11}{lib\_read\_input\_files module}{section*.4}{}}
\@writefile{toc}{\contentsline {section}{\numberline {5.2}lib\_write\_output\_files module}{11}{section.5.2}\protected@file@percent }
\newlabel{lib_write_output_files:module-lib_write_output_files}{{5.2}{11}{lib\_write\_output\_files module}{section.5.2}{}}
\newlabel{lib_write_output_files:lib-write-output-files-module}{{5.2}{11}{lib\_write\_output\_files module}{section.5.2}{}}
\newlabel{lib_write_output_files::doc}{{5.2}{11}{lib\_write\_output\_files module}{section.5.2}{}}
\newlabel{lib_write_output_files:lib_write_output_files.plot}{{5.2}{11}{lib\_write\_output\_files module}{section*.5}{}}
\@writefile{toc}{\contentsline {section}{\numberline {5.3}lib\_lingra module}{12}{section.5.3}\protected@file@percent }
\newlabel{lib_lingra:module-lib_lingra}{{5.3}{12}{lib\_lingra module}{section.5.3}{}}
\newlabel{lib_lingra:lib-lingra-module}{{5.3}{12}{lib\_lingra module}{section.5.3}{}}
\newlabel{lib_lingra::doc}{{5.3}{12}{lib\_lingra module}{section.5.3}{}}
\newlabel{lib_lingra:lib_lingra.lingra}{{5.3}{12}{lib\_lingra module}{section*.6}{}}
\@writefile{toc}{\contentsline {chapter}{\numberline {6}Indices and tables}{15}{chapter.6}\protected@file@percent }
\@writefile{lof}{\addvspace {10\p@ }}
\@writefile{lot}{\addvspace {10\p@ }}
\newlabel{index:indices-and-tables}{{6}{15}{Indices and tables}{chapter.6}{}}
\@writefile{toc}{\contentsline {chapter}{Python Module Index}{17}{section*.7}\protected@file@percent }
\@writefile{toc}{\contentsline {chapter}{Index}{19}{section*.8}\protected@file@percent }
\gdef \@abspage@last{23}
